{
  "schemaVersion": 1,
  "id": "lessgreedypiglins",
  "version": "${version}",
  "name": "less greedy piglins",
  "description": "piglins require gold to be dropped by players",
  "authors": [],
  "contact": {},
  "license": "MPL-2.0",
  "icon": "assets/lessgreedypiglins/icon.png",
  "environment": "*",
  "entrypoints": {},
  "mixins": [
    "lessgreedypiglins.mixins.json"
  ],
  "depends": {
    "fabricloader": ">=0.9.2+build.206",
    "fabric": "*",
    "minecraft": "1.16.2"
  }
}
