{
  "required": true,
  "minVersion": "0.8",
  "package": "repulica.lessgreedypiglins.mixin",
  "compatibilityLevel": "JAVA_8",
  "mixins": [
    "MixinPiglinBrain"
  ],
  "client": [
  ],
  "injectors": {
    "defaultRequire": 1
  }
}
